{
  "segmentNrInTask": "3",
  "mid": "3",
  "userGuid": "{00000000-0000-0000-C100-CCDDEE000002}",
  "userName": "lector test",
  "editable": "1",
  "pretrans": "1",
  "matchRate": "100",
  "qmId": null,
  "stateId": "0",
  "autoStateId": "1",
  "fileOrder": "0",
  "comments": null,
  "workflowStepNr": "1",
  "workflowStep": "lectoring",
  "source": "PHP Manual",
  "sourceMd5": "da9ebaa98560c57e1f9b53ff947262a7",
  "sourceToSort": "PHP Manual",
  "target": "PHP Manual",
  "targetMd5": "da9ebaa98560c57e1f9b53ff947262a7",
  "targetToSort": "PHP Manual",
  "targetEdit": "PHP Handbuch",
  "targetEditToSort": "PHP Handbuch",
  "isWatched": null,
  "segmentUserAssocId": null
}
