{
  "segmentNrInTask": "7",
  "mid": "7",
  "userGuid": "{00000000-0000-0000-C100-CCDDEE000002}",
  "userName": "lector test",
  "editable": "1",
  "pretrans": "0",
  "matchRate": "0",
  "qmId": null,
  "stateId": "0",
  "autoStateId": "1",
  "fileOrder": "0",
  "comments": null,
  "workflowStepNr": "1",
  "workflowStep": "lectoring",
  "source": "<div title=\"\" class=\"term preferredTerm exact transNotDefined\" data-tbxid=\"term_0000011_001_en_001_0000022\">Apache</div> 2.x on Unix systems",
  "sourceMd5": "7c672e73fab402d8d99addec970a47b6",
  "sourceToSort": "Apache 2.x on Unix systems",
  "target": "",
  "targetMd5": "d41d8cd98f00b204e9800998ecf8427e",
  "targetToSort": "",
  "targetEdit": "Apache 2.x auf Unix-Systemen",
  "targetEditToSort": "Apache 2.x auf Unix-Systemen",
  "isWatched": null,
  "segmentUserAssocId": null
}